%YAML 1.1
%TAG !u! tag:unity3d.com,2011:
--- !u!1045 &1
EditorBuildSettings:
  m_ObjectHideFlags: 0
  serializedVersion: 2
  m_Scenes:
  - enabled: 1
    path: Assets/Scenes/SampleScene.unity
    guid: 9e2faddb5b6c308418e18aedbb75124b
  - enabled: 1
    path: Assets/Scenes/LevelScene.unity
    guid: 25ef380ad58f8704a8a4b0f15e28f020
  m_configObjects: {}
